{
    "/assets/js/custom.js": "/assets/js/custom.js",
    "/assets/js/pages/users/index.js": "/assets/js/pages/users/index.js",
    "/assets/js/pages/users/edit.js": "/assets/js/pages/users/edit.js",
    "/assets/js/pages/roles/create.js": "/assets/js/pages/roles/create.js",
    "/assets/js/pages/projects-admin/projects_index.js": "/assets/js/pages/projects-admin/projects_index.js",
    "/assets/js/pages/projects-admin/projects_edit.js": "/assets/js/pages/projects-admin/projects_edit.js",
    "/assets/js/pages/projects-admin/product_edit.js": "/assets/js/pages/projects-admin/product_edit.js",
    "/assets/js/pages/files/index.js": "/assets/js/pages/files/index.js",
    "/assets/js/pages/files/view.js": "/assets/js/pages/files/view.js",
    "/js/app.js": "/js/app.js",
    "/css/app.css": "/css/app.css"
}
